{
  "project_info": {
    "project_number": "447404459145",
    "firebase_url": "https://prowl-app.firebaseio.com",
    "project_id": "prowl-app",
    "storage_bucket": "prowl-app.appspot.com"
  },
  "client": [
    {
      "client_info": {
        "mobilesdk_app_id": "1:447404459145:android:cf50ff886d9e541e",
        "android_client_info": {
          "package_name": "com.treebo.prowlapp"
        }
      },
      "oauth_client": [
        {
          "client_id": "447404459145-qlq10q579o9ke3ehqgrmsg6gpvnsvg13.apps.googleusercontent.com",
          "client_type": 1,
          "android_info": {
            "package_name": "com.treebo.prowlapp",
            "certificate_hash": "338205f3142b7ea42144fb0550abfc497da3eafb"
          }
        },
        {
          "client_id": "447404459145-0mqocsan71a7k0i61b7eqiskjaleqs3l.apps.googleusercontent.com",
          "client_type": 1,
          "android_info": {
            "package_name": "com.treebo.prowlapp",
            "certificate_hash": "0f1de763182bbf856546e3ec490bd8c1ee40cc76"
          }
        },
        {
          "client_id": "447404459145-ivel8ia2q0cjfsm3ggb49qvjde2n26t2.apps.googleusercontent.com",
          "client_type": 1,
          "android_info": {
            "package_name": "com.treebo.prowlapp",
            "certificate_hash": "a1a66f997d77c7557ea4513238d0a514ce4583d3"
          }
        },
        {
          "client_id": "447404459145-o55cqhpahrerh2ovhb5lljvcspo7a197.apps.googleusercontent.com",
          "client_type": 3
        }
      ],
      "api_key": [
        {
          "current_key": "AIzaSyBNrFt9fagKXT44r13ZBO1AU9xHAcFI5ns"
        }
      ],
      "services": {
        "appinvite_service": {
          "other_platform_oauth_client": [
            {
              "client_id": "447404459145-o55cqhpahrerh2ovhb5lljvcspo7a197.apps.googleusercontent.com",
              "client_type": 3
            }
          ]
        }
      }
    }
  ],
  "configuration_version": "1"
}